<?xml version="1.0" encoding="utf-8"?>
<!-- Generator: Adobe Illustrator 22.1.0, SVG Export Plug-In . SVG Version: 6.00 Build 0)  -->
<svg version="1.1" id="Laag_1" xmlns="http://www.w3.org/2000/svg" xmlns:xlink="http://www.w3.org/1999/xlink" x="0px" y="0px"
	 viewBox="0 0 512 512" style="enable-background:new 0 0 512 512;" xml:space="preserve">
<style type="text/css">
	.st0{fill:#FFFFFF;}
</style>
<path class="st0" d="M256,511c-8.4,0-15.2-6.8-15.2-15.2c0-8.4,6.8-15.2,15.2-15.2c126.3,0,216.3-103,224.9-201.1h-5.9
	c-21.8,0-38.9-17.4-39.1-39.7c0-3.6-2-5.8-3.1-6.8c-1.2-1-3.6-2.6-7.3-2.2c-4.4,0.6-7.9,4.8-7.9,9.7v48.1
	c0,21.8-17.8,39.6-39.6,39.6c-21.8,0-39.6-17.8-39.6-39.6V185.9c0-5-4.2-9.1-9.1-9.1s-9.1,4.2-9.1,9.1v195
	c0,21.8-17.8,39.6-39.6,39.6s-39.6-17.8-39.6-39.6V131.1c0-5-4.2-9.1-9.1-9.1s-9.1,4.2-9.1,9.1v195c0,21.8-17.8,39.6-39.6,39.6
	s-39.6-17.8-39.6-39.6V223.5c0-5-4.2-9.1-9.1-9.1c-5,0-9.1,4.2-9.1,9.1v48.1c0,20.2-14.8,37.4-34.4,39.9c-11.3,1.5-22.7-2-31.2-9.4
	c-8.5-7.5-13.5-18.2-13.6-29.5c0-5.3-3.8-9.5-8.6-9.5H0v-15.2C0,185.2,27.7,122,75.9,74.5C124.9,26.1,189.7,0.1,258.2,1
	c8.4,0.1,15.1,7,15,15.5c-0.1,8.3-6.9,15-15.2,15c-0.1,0-0.1,0-0.2,0c-60.4-0.8-117.4,22.1-160.6,64.7
	c-37.9,37.3-61.9,87.4-66.1,136.5h5.9c21.8,0,38.9,17.4,39.1,39.7c0,3.6,2,5.8,3.1,6.8c1.2,1,3.6,2.6,7.3,2.2
	c4.4-0.6,7.9-4.8,7.9-9.7v-48.1c0-21.8,17.8-39.6,39.6-39.6s39.6,17.8,39.6,39.6v102.6c0,5,4.2,9.1,9.1,9.1c5,0,9.1-4.2,9.1-9.1
	v-195c0-21.8,17.8-39.6,39.6-39.6s39.6,17.8,39.6,39.6V381c0,5,4.2,9.1,9.1,9.1s9.1-4.2,9.1-9.1v-195c0-21.8,17.8-39.6,39.6-39.6
	s39.6,17.8,39.6,39.6v102.6c0,5,4.2,9.1,9.1,9.1c5,0,9.1-4.2,9.1-9.1v-48.1c0-20.2,14.8-37.4,34.4-39.9c11.3-1.5,22.7,2,31.2,9.4
	c8.5,7.5,13.5,18.2,13.6,29.5c0,5.3,3.8,9.5,8.6,9.5H512v15.2c0,60.4-26.6,122-72.9,169.2C389.8,483.4,324.8,511,256,511z"/>
</svg>
